{"name":"test002","id":"com.req.res.reqresuserinfo.ReqresCRUDTest:test002","testCaseName":"com.req.res.reqresuserinfo.ReqresCRUDTest","testSteps":[{"number":1,"description":"GET https://reqres.in/api/users?page\u003d2\r","duration":2,"startTime":"2020-05-19T18:28:41.489+01:00[Europe/London]","result":"SUCCESS","restQuery":{"method":"GET","path":"https://reqres.in/api/users?page\u003d2\r","content":"\r","contentType":"application/json","requestHeaders":"Accept\u003d*/*\r\n\t\t\t\tContent-Type\u003dapplication/json; charset\u003dUTF-8\r","requestCookies":"\r","responseHeaders":"Date: Tue, 19 May 2020 17:28:40 GMT\r\nContent-Type: application/json; charset\u003dutf-8\r\nTransfer-Encoding: chunked\r\nConnection: keep-alive\r\nSet-Cookie: __cfduid\u003ddd89b3a1648b3e5ef8b4b21877bcb674c1589909320; expires\u003dThu, 18-Jun-20 17:28:40 GMT; path\u003d/; domain\u003d.reqres.in; HttpOnly; SameSite\u003dLax; Secure\r\nX-Powered-By: Express\r\nAccess-Control-Allow-Origin: *\r\nEtag: W/\"4dd-IPv5LdOOb6s5S9E3i59wBCJ1k/0\"\r\nVia: 1.1 vegur\r\nCache-Control: max-age\u003d14400\r\nCF-Cache-Status: HIT\r\nAge: 5776\r\nExpect-CT: max-age\u003d604800, report-uri\u003d\"https://report-uri.cloudflare.com/cdn-cgi/beacon/expect-ct\"\r\nVary: Accept-Encoding\r\nServer: cloudflare\r\nCF-RAY: 595f8922dd01070a-LHR\r\nContent-Encoding: gzip\r\ncf-request-id: 02cf9409c80000070aa5a15200000001\r","responseCookies":"__cfduid\u003ddd89b3a1648b3e5ef8b4b21877bcb674c1589909320;Path\u003d/;Domain\u003d.reqres.in;Secure;HttpOnly;Expires\u003d18/06/20 17:28\r","responseBody":"{\n    \"page\": 2,\n    \"per_page\": 6,\n    \"total\": 12,\n    \"total_pages\": 2,\n    \"data\": [\n        {\n            \"id\": 7,\n            \"email\": \"michael.lawson@reqres.in\",\n            \"first_name\": \"Michael\",\n            \"last_name\": \"Lawson\",\n            \"avatar\": \"https://s3.amazonaws.com/uifaces/faces/twitter/follettkyle/128.jpg\"\n        },\n        {\n            \"id\": 8,\n            \"email\": \"lindsay.ferguson@reqres.in\",\n            \"first_name\": \"Lindsay\",\n            \"last_name\": \"Ferguson\",\n            \"avatar\": \"https://s3.amazonaws.com/uifaces/faces/twitter/araa3185/128.jpg\"\n        },\n        {\n            \"id\": 9,\n            \"email\": \"tobias.funke@reqres.in\",\n            \"first_name\": \"Tobias\",\n            \"last_name\": \"Funke\",\n            \"avatar\": \"https://s3.amazonaws.com/uifaces/faces/twitter/vivekprvr/128.jpg\"\n        },\n        {\n            \"id\": 10,\n            \"email\": \"byron.fields@reqres.in\",\n            \"first_name\": \"Byron\",\n            \"last_name\": \"Fields\",\n            \"avatar\": \"https://s3.amazonaws.com/uifaces/faces/twitter/russoedu/128.jpg\"\n        },\n        {\n            \"id\": 11,\n            \"email\": \"george.edwards@reqres.in\",\n            \"first_name\": \"George\",\n            \"last_name\": \"Edwards\",\n            \"avatar\": \"https://s3.amazonaws.com/uifaces/faces/twitter/mrmoiree/128.jpg\"\n        },\n        {\n            \"id\": 12,\n            \"email\": \"rachel.howell@reqres.in\",\n            \"first_name\": \"Rachel\",\n            \"last_name\": \"Howell\",\n            \"avatar\": \"https://s3.amazonaws.com/uifaces/faces/twitter/hebertialmeida/128.jpg\"\n        }\n    ],\n    \"ad\": {\n        \"company\": \"StatusCode Weekly\",\n        \"url\": \"http://statuscode.org/\",\n        \"text\": \"A weekly newsletter focusing on software development, infrastructure, the server, performance, and the stack end of things.\"\n    }\n}","statusCode":200},"precondition":false,"level":0}],"userStory":{"id":"com.req.res.reqresuserinfo.ReqresCRUDTest","storyName":"Reqres CRUD test","storyClassName":"com.req.res.reqresuserinfo.ReqresCRUDTest","path":"reqresuserinfo","type":"story"},"featureTag":{"name":"Reqresuserinfo/Reqres CRUD test","type":"story","displayName":"Reqresuserinfo/Reqres CRUD test"},"title":"Getting User from the record","tags":[{"name":"Reqresuserinfo","type":"feature","displayName":"Reqresuserinfo"},{"name":"Reqresuserinfo/Reqres CRUD test","type":"story","displayName":"Reqres CRUD test"}],"startTime":"2020-05-19T18:28:38.324+01:00[Europe/London]","duration":3316,"projectKey":"","isManualTestingUpToDate":false,"manual":false,"testSource":"JUnit","result":"SUCCESS"}